{
    "products":[
        {
            "_id":"book1",
            "title": "Book 1",
            "image":"images/book1.jpg",
            "description": "about book 1",
            "price": 19,
            "year": 2012,
            "availableStock":100
        },
        {
            "_id":"book2",
            "title": "Book 2",
            "image":"images/book2.jpg",
            "description": "about book 2",
            "price": 9,
            "year": 2006,
            "availableStock":100
        },
        {
            "_id":"book3",
            "title": "Book 3",
            "image":"images/book3.jpg",
            "description": "about book 3",
            "price": 45,
            "year":2019,
            "availableStock":100
        },
        {
            "_id":"book4",
            "title": "Book 4",
            "image":"images/book4.jpg",
            "description": "about book 4",
            "price": 100,
            "year": 1998,
            "availableStock":100
        },
        {
            "_id":"book5",
            "title": "Book 5",
            "image":"images/book5.jpg",
            "description": "about book 5",
            "price": 69,
            "year":2020,
            "availableStock":100
        },
        {
            "_id":"book6",
            "title": "Book 6",
            "image":"images/book6.jpg",
            "description": "about book 6",
            "price": 34,
            "year": 2001,
            "availableStock":100
        }


    ]
}